﻿|SourceProjectName:Consumer Banking Online Help.hpr
|DestinationProjectName:cbhelp.html
whhost.js
whmsg.js
whmozemu.js
whutils.js
whproxy.js
whstub.js
whver.js
whform.js
whphost.js
whstart.js
whtopic.js
whframes.js
whlang.js
xmlreadhelper.js
whskin_info.htm
whskin_blank.htm
whskin_pickup.htm
whskin_homepage.htm
whskin_tw.htm
whnjs.htm
whthost.js
whtdhtml.htm
whihost.js
whibody.htm
whiform.htm
whfhost.js
whfbody.htm
whfform.htm
whghost.js
whgbody.htm
whgdhtml.htm
whgdef.htm
whproj.js
whproj.htm
whdata\whtoc.js
whdata\whtoc.htm
whdata\whtdata.js
whdata\whidx.js
whdata\whidx.htm
whdata\whidata.js
whdata\whglo.js
whdata\whglo.htm
whdata\whgdata.js
whgdata\whnvp30.htm
whgdata\whnvp31.htm
whgdata\whnvp32.htm
whgdata\whnvp33.htm
whgdata\whnvt30.htm
whgdata\whnvt31.htm
whgdata\whnvt32.htm
whgdata\whnvt33.htm
whgdata\whnvf30.htm
whgdata\whnvf31.htm
whgdata\whnvf32.htm
whgdata\whnvf33.htm
whgdata\whnvl31.htm
whgdata\whnvl32.htm
whgdata\whnvl33.htm
whgdata\whexpbar.gif
cshdat_webhelp.htm
whcsh_home.htm
whcshdata.js
cshdat_robohelp.htm
wht_tab0.gif
wht_tab1.gif
wht_tab2.gif
wht_tab3.gif
wht_tab4.gif
wht_tab5.gif
wht_tab6.gif
wht_tab7.gif
wht_tab8.gif
wht_glo_h.gif
wht_glo_n.gif
wht_fts_h.gif
wht_fts_n.gif
wht_idx_h.gif
wht_idx_n.gif
wht_toc_h.gif
wht_toc_n.gif
wht_ws.gif
wht_ws_g.gif
wht_logo1.gif
wht_logo2.gif
wht_abgw.jpg
wht_abgi.jpg
wht_abge.jpg
wht_abtw.jpg
wht_abte.jpg
wht_abti.jpg
wht_spac.gif
wht_next.gif
wht_next_g.gif
wht_prev.gif
wht_prev_g.gif
wht_sync.gif
wht_hide.gif
wht_go.gif
whstart.ico
whestart.ico
whrstart.ico
whidhtml.htm
whfdhtml.htm
whskin_banner.htm
whtbar.js
whskin_pdhtml.htm
whskin_plist.htm
whskin_tbars.htm
whskin_mbars.htm
wht_toc4.gif
wht_toc1.gif
wht_toc2.gif
wht_toc3.gif
whskin_frmset010.htm
whst_topics.xml
whskin_frmset01.htm
cbhelp_hha.hhk
cbhelp.hhc
cbhelp.hhk
70billpaymentdeletepayee.html
70billpaymentmultipleconfirmsend.html
70billpaymentpayeeedit.html
70billpaymentpayeenewconfirm.html
70payments_placestoppayment.html
80account_inquiryhistory.html
80account_register_pendingtrans.html
80account_transactiondetail.html
80alert_inbox.html
80home_leftbar_alertsmallpanel.html
80home_leftbar_approvalsmallpanel.html
80home_leftbar_forexconverter.html
80home_leftbar_messagesmallpanel.html
80home_leftbar_shortcuts.html
80home_leftbar_themepicker.html
80home_portal-layout-dialog.html
80home_portal-page-form.html
80home_portal-pages-dialog.html
80home_portal-portlets-dialog.html
80home_portlet-account-disbursements.html
80home_portlet-accounts_summary.html
80home_portlet-advice-edit.html
80home_portlet-advice.html
80home_portlet-calc-edit.html
80home_portlet-calc.html
80home_portlet-favorite-accounts-edit.html
80home_portlet-favorite-accounts.html
80home_portlet-market-edit.html
80home_portlet-market.html
80home_portlet-news-edit.html
80home_portlet-news-story.html
80home_portlet-news.html
80home_portlet-pending_transactions.html
80home_portlet-positive-pay.html
80home_portlet-presentment-disbursements.html
80home_portlet-search.html
80home_portlet-stock-chart.html
80home_portlet-stock-edit.html
80home_portlet-stock-lookup.html
80home_portlet-stock-no-match.html
80home_portlet-stock-quote.html
80home_portlet-stock.html
80home_portlet-weather-edit.html
80home_portlet-weather.html
80messagereceived.html
80payments_accounttransfercompletedsummary.html
80payments_accounttransferinquiry.html
80payments_accounttransfermultipletemplates.html
80payments_accounttransferpendingsummary.html
80payments_accounttransfersingletemplates.html
80payments_accounttransfertemplateload.html
80payments_accounttransfertemplatesaveas.html
80payments_billpay.html
80payments_billpaycompletesummary.html
80payments_billpayinquiry.html
80payments_billpaymultipletemplatessummary.html
80payments_billpaypayeebankform.html
80payments_billpaypayeeeditconfirm.html
80payments_billpaypayeessummary.html
80payments_billpaypendingsummary.html
80payments_billpaysingletemplatessummary.html
80payments_billpaytemplatesend.html
80payments_cashconcompletedsummary.html
80payments_cashconpendingsummary.html
80payments_cashconsend.html
80payments_cashcontransferinquiry.html
80payments_newstop.html
80payments_placestoppayment.html
80payments_stopstransferinquiry.html
80payments_stopsummary.html
80payments_wiretemplatebanksummary.html
80payments_wiretemplatebusinesssummary.html
80payments_wiretemplateusersummary.html
80user_banklistselect.html
80user_clone-account-permissions-confirm.html
80user_clone-user-permissions-confirm.html
80user_corpadminaccountedit-confirm.html
80user_corpadminaccountedit-verify.html
80user_corpadminaccountgroups_grid.html
80user_corpadminaccountsconfig_grid.html
80user_corpadminadminedit-done.html
80user_corpadminadminedit-verify.html
80user_corpadminlocations.html
account-balances.html
account-edit.html
account-history-adv-transactions.html
account-history-advanced.html
account-history-checkimage.html
account-history-delete-search-confirm.html
account-history-delete-search-done.html
account-history-export-common.html
account-history-export.html
account-history-save-search.html
account-history.html
account_accounthistory.html
account_edit.html
account_savesearch.html
accounts-export.html
accounts-export2.html
accounts_savedtransactionsearch_delete.html
accountsbygroup.html
accounttransferedit.html
accounttransfermultipleconfirm.html
accounttransfermultiplenew.html
accounttransfermultipleverify.html
addaccounts.html
adding_an_editing_alerts.htm
adding_and_editing_alerts.htm
adding_multiple_bill_payment_template.htm
adding_multiple_template_for_transfers.htm
adding_single_bill_payment_template.htm
adding_single_template_for_transfers.htm
adding_users.htm
agg-acceptance.html
agg-add-account-step2.html
agg-add-account-step3.html
agg-add-account.html
agg-add-account2.html
agg-confirmation.html
agg-delete-confirm.html
agg-delete.html
alertlog.html
alerts-accountsum-done.html
alerts-accountsum.html
alerts-balance-done.html
alerts-balance.html
alerts-bankmsg-done.html
alerts-bankmsg.html
alerts-contact-points-confirm.html
alerts-contact-points-delete-confirm.html
alerts-contact-points-delete-verify.html
alerts-contact-points-test-confirm.html
alerts-contact-points-verify.html
alerts-contact-points.html
alerts-contactpoints_addnew.html
alerts-contactpoints_summary.html
alerts-delete-message-confirm.html
alerts-delete-message.html
alerts-delete-save.html
alerts-delete.html
alerts-inqresponse-done.html
alerts-inqresponse.html
alerts-lockout-done.html
alerts-lockout.html
alerts-log.html
alerts-managealerts.html
alerts-nsf-done.html
alerts-nsf.html
alerts-psswdchange-done.html
alerts-psswdchange.html
alerts-read.html
alerts-received.html
alerts-stock-done.html
alerts-stock.html
alerts-trans-done.html
alerts-trans.html
alerts.html
alerts_bankinquiryresponse.html
alerts_subscribed_alerts.html
alertsaddedit.html
alertsbalance.html
alertsstock.html
alertstransaction.html
approvals_approvepayments-verify.html
approvals_approvepayments-viewbillpay.html
approvals_approvepayments-viewcashcon.html
approvals_approvepayments-viewtransfer.html
bank_looup.htm
bill_payment_template.htm
bill_payment_template_summary.htm
billpay-pending-approval-summary.html
billpay_addpayeeverify.html
billpay_routingnumbersearch.html
billpaycompletedsummary.html
billpaypayeeverifyedit.html
billpaypendingsummary.html
billpaytemplatesend.html
billpaytemplatesingleform.html
billpaytemplatesmultinewform.html
billpaytemplatesummary.html
business_company-profile-edit-save.html
business_company-profile-edit.html
business_company-profile.html
business_employees_add-edit-single-employeepmt-confirm.html
business_employees_add-edit-single-employeepmt-done.html
business_employees_add-edit-single-employeepmt.html
business_employees_add-mul-employeepmt-confirm.html
business_employees_add-mul-employeepmt-done.html
business_employees_add-mul-employeepmt.html
business_employees_add-rec-employeepmt-confirm.html
business_employees_add-rec-employeepmt-done.html
business_employees_add-rec-employeepmt.html
business_employees_addeditemployee.html
business_employees_addeditemployeeconfirm.html
business_employees_del-employeepmt-confirm.html
business_employees_del-employeepmt.html
business_employees_del-employeepmt2.html
business_employees_employeeconfirmadd.html
business_employees_employeeexport.html
business_employees_employeepmt-summary.html
business_employees_employeesummary.html
business_employees_saved-employeepmt.html
business_employees_saved-mul-employeepmt-add-confirm.html
business_employees_saved-mul-employeepmt-add-done.html
business_employees_saved-mul-employeepmt-add.html
business_employees_saved-mul-employeepmt-del.html
business_employees_saved-mul-employeepmt-edit-confirm.html
business_employees_saved-mul-employeepmt-edit-done.html
business_employees_saved-mul-employeepmt-edit.html
business_employees_saved-single-employeepmt-add-confirm.html
business_employees_saved-single-employeepmt-add-done.html
business_employees_saved-single-employeepmt-add.html
business_employees_saved-single-employeepmt-del.html
business_employees_saved-single-employeepmt-edit-confirm.html
business_employees_saved-single-employeepmt-edit-done.html
business_employees_saved-single-employeepmt-edit.html
business_employees_view-employeepmt.html
business_employees_viewemployeedetails.html
business_taxpaymentadd.html
business_taxpaymentaddedit.html
business_taxpaymentaddeditnext.html
business_taxpaymentaddeditverify.html
business_taxpaymentdelete.html
business_taxpaymentedit.html
business_taxpaymentinquiry.html
business_taxpaymentsend.html
business_taxpaymentview.html
business_taxsavedtaxpayments.html
business_taxsummary.html
business_user-addedit-accounts.html
business_user-addedit-confirm.html
business_user-addedit-employeepayments.html
business_user-addedit-exttransfers.html
business_user-addedit-info.html
business_user-addedit-payments.html
business_user-addedit-taxpayments.html
business_user-addedit-transfers.html
business_user-addedit-vendorpayments.html
business_user-addedit-wires.html
business_user-delete-confirm.html
business_user-delete.html
business_user-edit-password-reset.html
business_user-edit-unlock.html
business_user-terms.html
business_users.html
business_vendors_addeditmultvendorpmt.html
business_vendors_addeditmultvendorpmtconfirm.html
business_vendors_addeditmultvendorpmtsend.html
business_vendors_addeditvendor-done.html
business_vendors_addeditvendor.html
business_vendors_addeditvendorcomfirm.html
business_vendors_deletevendor-done.html
business_vendors_deletevendor.html
business_vendors_edit-vendor-payment.html
business_vendors_edit-vendorpmt-confirm.html
business_vendors_edit-vendorpmt-sent.html
business_vendors_saved-mul-vendorpmt-add-confirm.html
business_vendors_saved-mul-vendorpmt-add-done.html
business_vendors_saved-mul-vendorpmt-add.html
business_vendors_saved-mul-vendorpmt-edit-confirm.html
business_vendors_saved-mul-vendorpmt-edit-done.html
business_vendors_saved-mul-vendorpmt-edit.html
business_vendors_saved-multiple-vendorpmt-delete.html
business_vendors_saved-single-vendorpmt-add-confirm.html
business_vendors_saved-single-vendorpmt-add.html
business_vendors_saved-single-vendorpmt-edit-confirm.htm
business_vendors_saved-single-vendorpmt-edit.html
business_vendors_saved-single-vendpmt-add-done.html
business_vendors_saved-vendorpmt-delete.html
business_vendors_savedvendorpmtsummary.html
business_vendors_single-vendor-payment.html
business_vendors_vendor-payment-confirm.html
business_vendors_vendor-payment-delete.html
business_vendors_vendor-payment-repeat-confirm.html
business_vendors_vendor-payment-sent.html
business_vendors_vendor-payment-summary.html
business_vendors_vendor-payment-view.html
business_vendors_vendorexport.html
business_vendors_vendorpmt-repeat-sent.html
business_vendors_vendorpmt-repeat.html
business_vendors_vendorsummary.html
business_vendors_viewvendor.html
business_wires_addeditwiretransfer.html
business_wires_addeditwiretransferconfirm.html
business_wires_exportpayees.html
business_wires_wireaddpayee.html
business_wires_wiremanagesaved.html
business_wires_wirepayeeaddconfirm.html
business_wires_wirepayeeaddsave.html
business_wires_wirepayeedelete.html
business_wires_wirepayeedeletesend.html
business_wires_wirepayees.html
business_wires_wirepayeeview.html
business_wires_wires-multiple-confirm.html
business_wires_wires-multiple-send.html
business_wires_wires-multiple.html
business_wires_wiresaveastemplatesave.html
business_wires_wiresaveddelete.html
business_wires_wiresaveddeletesend.html
business_wires_wiresavededit.html
business_wires_wiresavededitconfirm.html
business_wires_wiresavededitsend.html
business_wires_wiresavedview.html
business_wires_wiresummary.html
business_wires_wiretransferdeletesend.html
business_wires_wiretransfersdelete.html
business_wires_wiretransfersend.html
business_wires_wiretransferview.html
cash_cashppaybuildconfirm.html
cash_cashppconfirm.html
cash_cashppuploadfailure.html
confirmstop.html
edit-pay-confirm.html
edit-pay-sent.html
edit-pay.html
edit-rec-pay-confirm.html
edit-rec-pay-sent.html
edit-rec-pay.html
edit-trans-confirm.html
edit-trans-sent.html
edit-trans.html
email-image.html
export-downloading.html
exporting_transaction_search.htm
faq.html
forex_converter.htm
fx_fx.html
home.html
image-offset.html
image-search-results.html
image.html
images_grid.html
imagesearch.html
imagesearch_checkimage.html
index.html
inquirehistory.html
logging_in.htm
logging_out.htm
mbanking-delete-device.html
mbanking-manage-device.html
mbanking-profile.html
mbanking-register-device-token-confirm.html
mbanking-register-device-token.html
mbanking-register-device.html
mbanking-tandc.html
messagereply.html
messages-create-stops.html
messages-create.html
messages-delete-confirm.html
messages-delete-sent-confirm.html
messages-delete-sent.html
messages-delete.html
messages-read-rec.html
messages-read-sent.html
messages-received.html
messages-reply.html
messages-sent-confirm.html
messages-sent.html
messages.html
messagesdelete.html
messagesent.html
messageview.html
messageviewsent.html
mobiledevice-edit.html
mobiledevice-view.html
multipaybill.html
multipaybillconfirm.html
multipaybillsummary.html
multiplebillpaytemplateload.html
multipletransfertemplateload.html
myprofile-save-wait.html
myprofile.html
newmessage.html
nonexistent2.html
nonexistent3.html
nonexistentjsp.html
online_statement_details.html
online_statement_export.html
onlinestatements_index.html
other_setting.htm
otherprefsettings.html
pay-bill.html
pay-delete.html
pay-repeat-confirm2.html
pay-repeat-sent.html
pay-repeat2.html
pay-send-confirm.html
pay-send.html
payee-add-success.html
payee-add-verify.html
payee-common-add1.html
payee-common-success.html
payee-company-add-wait.html
payee-company-add3.html
payee-company-showall-wait.html
payee-delete-confirm.html
payee-delete.html
payee-edit2-success.html
payee-edit2.html
payee-list.html
payee-view.html
payments_accounttransferconfirm.html
payments_accounttransferdelete.html
payments_accounttransferedit.html
payments_accounttransfermultiplenew.html
payments_accounttransfermultipletempedit.html
payments_accounttransfermultipleverify.html
payments_accounttransfernew.html
payments_accounttransferverify.html
payments_accounttransferview.html
payments_achbatchaddeditsubmitted.html
payments_billpayaddpayee.html
payments_billpayaddpayeeconfirm.html
payments_billpaydeletebill.html
payments_billpayedit.html
payments_billpayeditbill.html
payments_billpayeditconfirm.html
payments_billpaynew.html
payments_billpaynewconfirm.html
payments_billpaynewmulti.html
payments_billpaynewmulticonfirm.html
payments_billpaynewsend.html
payments_billpaypayee-company-add.html
payments_billpaypaysend.html
payments_billpaytempdelete.html
payments_billpaytemplatedetail.html
payments_billpaytemplateedit.html
payments_billpayview.html
payments_billpayviewbill.html
payments_cashconconfirm.html
payments_cashcondelete.html
payments_cashconview.html
payments_confirmstop.html
payments_converttotemplate.html
payments_externalaccounts.html
payments_index.html
payments_newmultipletemp.html
payments_payment-view.html
payments_payments-inquiry.html
payments_paymentsummary.html
payments_saved-payment-add-confirm.html
payments_saved-payment-add.html
payments_saved-payment-batch-add-confirm.html
payments_saved-payment-batch-add.html
payments_saved-payment-batch-delete.html
payments_saved-payment-batch-edit-confirm.html
payments_saved-payment-batch-edit.html
payments_saved-payment-delete.html
payments_saved-payment-edit-confirm.html
payments_saved-payment-edit.html
payments_saved-payments.html
payments_stoppayments-verify.html
payments_stoppayments.html
payments_transfertempnew.html
payments_wirepayeebookdelete.html
payments_wirepayeedrawdowndelete.html
placestoppayment.html
portal-advice-save-wait.html
portal-advice.html
portal-bnews.html
portal-calc-save-wait.html
portal-calc.html
portal-layout.html
portal-markets.html
portal-news-save-wait.html
portal-news-story.html
portal-news.html
portal-portfolio.html
portal-snews.html
portal-stock-news.html
portal-symbol-lookup.html
portal-weather-save-wait.html
portal-weather.html
portal.html
portlet-accounts_summary.html
portlet-pending_transactions.html
preferences-account_edit.html
preferences-menus.html
preferences-otherprefsettings.html
previously-requested-images.html
previouslyrequestedimages.html
register-account-register.html
register-add-payee.html
register-cat-delete.html
register-cat-sub-add.html
register-cat-sub-delete.html
register-cat-sub-edit.html
register-category-add.html
register-category-edit.html
register-category-list.html
register-edit-payee.html
register-export.html
register-payee-delete.html
register-rec-add.html
register-rec-delete.html
register-rec-details.html
register-rec-inquiry.html
register-reports.html
register-setup.html
reportcriteria.html
reportdisplay.html
reportexport.html
reports_rptconfirmdelete.html
reportsaved.html
rptconfirmdelete.html
searching_transaction_history.htm
security-check-failed.html
security-check.html
sending_transaction_inquires.htm
servicecenter_account_history_inquiry.html
servicecenter_account_history_inquiry_done.html
servicecenter_accounthistoryinquiry.html
servicecenter_add_accounts.html
servicecenter_add_bill_pay_account_done.html
servicecenter_add_online_accounts_done.html
servicecenter_addaccounts.html
servicecenter_bank_fee_inquiry.html
servicecenter_bank_fee_inquiry_done.html
servicecenter_bankfeeinquiry.html
servicecenter_bill_payment_inquiry.html
servicecenter_bill_payment_inquiry_send.html
servicecenter_billpaymentinquiry.html
servicecenter_contactinformation.html
servicecenter_documentcenter.html
servicecenter_faq.html
servicecenter_generalquestions.html
servicecenter_onlinecustomerservices.html
servicecenter_order_checks.html
servicecenter_order_cleared_checks.html
servicecenter_order_cleared_checks_done.html
servicecenter_order_copy_statement.html
servicecenter_order_copy_statement_done.html
servicecenter_order_deposit_envelopes.html
servicecenter_order_deposit_envelopes_done.html
servicecenter_orderchecks.html
servicecenter_orderclearedchecks.html
servicecenter_ordercopystatement.html
servicecenter_orderdepositenvelopes.html
servicecenter_services.html
servicecenter_session-receipt.html
servicecenter_sessionreceipt.html
servicecenter_transfer_inquiry.html
servicecenter_transfer_inquiry_send.html
servicecenter_transferinquiry.html
session-receipt.html
session_activity.htm
singlebillpaytemplateload.html
singletransfertemplateload.html
site_navigation.htm
starting_sap_online_retail_banking.htm
statement-agreement.html
statement-agreement2.html
statement-checkimage.html
statement-export.html
statement-notice.html
statement-search.html
statement-transaction-details.html
stock-chart.html
stock-quote.html
stoppayments-verify.html
stops-review.html
stops-view-remove.html
stops_delete.html
stops_view.html
subscribed_alerts.htm
susbcribed_alerts.htm
tab-order-userpreferencesedit.html
templateconfirm.html
templateeditform.html
the_home_page.htm
tools.htm
trans-confirm.html
trans-delete.html
trans-from.html
trans-multiple-confirm.html
trans-multiple-sent.html
trans-multiple.html
trans-repeat-confirm.html
trans-repeat-sent.html
trans-repeat.html
trans-sent.html
transaction-detail.html
transaction_search.htm
transfer-pending-approval-summary.html
transfer_template.htm
transfer_template_summary.htm
transfers_manage-external-add.html
transfers_manage-external-delete.html
transfers_manage-external-deposit.html
transfers_manage-external-deposited.html
transfers_manage-external-verified.html
transfers_manage-external-verify.html
transfers_manage-external-view.html
transfers_manage-external.html
transfers_multipletemplateedit.html
transfers_saved-multiple-transfer-add-confirm.html
transfers_saved-multiple-transfer-add-sent.html
transfers_saved-multiple-transfer-add.html
transfers_saved-multiple-transfer-delete.html
transfers_saved-multiple-transfer-edit-confirm.html
transfers_saved-multiple-transfer-edit.html
transfers_saved-transfer-add-confirm.html
transfers_saved-transfer-add-sent.html
transfers_saved-transfer-add.html
transfers_saved-transfer-delete.html
transfers_saved-transfer-edit-confirm.html
transfers_saved-transfer-edit-sent.html
transfers_saved-transfer-edit.html
transfers_saved-transfers.html
transfers_transfer-inquiry.html
transfers_transfer-view.html
transfers_transfersummary.html
transfertempdeleteconfirm.html
transfertemplatedetails.html
transfertemplateverify.html
untagged_accessing_sap_online_retail_banking.htm
untagged_account_history.html
untagged_account_management.html
untagged_account_register.html
untagged_alerts.html
untagged_basic_funds_transfers.html
untagged_billpayment.html
untagged_business_advanced_bill_payments.html
untagged_business_advanced_transfers.html
untagged_business_bill_payments.html
untagged_business_employee_payments.html
untagged_business_news.html
untagged_business_tax_payments.html
untagged_business_vendor_payments.html
untagged_business_wire_transfers.html
untagged_calculators.html
untagged_financial_advice.html
untagged_funds_transfers.html
untagged_headline_news.html
untagged_home.html
untagged_image_search.html
untagged_internet_search.html
untagged_manage_accounts.html
untagged_messages.html
untagged_mobile_banking.html
untagged_payments.html
untagged_payments_and_transfers.html
untagged_preferences.html
untagged_service_center.html
untagged_sports_news.html
untagged_standard_bill_payments.html
untagged_standard_transfers.html
untagged_stock_portfolio.html
untagged_stop_payment.html
untagged_todays_markets.html
untagged_transfers.html
untagged_weather.html
untagged_welcome.html
user_accountaccess-confirm.html
user_accountaccess-view.html
user_accountgroupaccess-view.html
user_corpadminaccountedit-verify.html
user_corpadminaccountedit.html
user_corpadminaccountsedit.html
user_corpadminadminedit-confirm.html
user_corpadminapprovalgroupassign.html
user_corpadminbusinessedit-confirm.html
user_corpadmindivadd-confirm.html
user_corpadmindivdelete-verify.html
user_corpadmingroupadd-confirm.html
user_corpadmingroupdelete-confirm.html
user_corpadmingroupdelete-verify.html
user_corpadmingroupedit.html
user_corpadminlocadd-confirm.html
user_corpadminlocdelete-confirm.html
user_corpadminlocdelete-verify.html
user_corpadminlocedit-confirm.html
user_corpadminlocedit-verify.html
user_corpadminlocedit.html
user_corpadminprofileadd-confirm.html
user_corpadminprofiledelete-confirm.html
user_corpadminprofiledelete-verify.html
user_corpadminprofileedit-verify.html
user_corpadminprofileedit.html
user_corpadmintrangroupdelete-verify.html
user_corpadminuseradd-autoentitle.html
user_corpadminuseradd-confirm.html
user_corpadminuseradd.html
user_corpadminuserdelete-confirm.html
user_corpadminuserdelete-verify.html
user_corpadminuseredit-confirm.html
user_corpadminuseredit-verify.html
user_corpsummary.html
user_crossaccountpermissions-confirm.html
user_crossaccountpermissions-verify.html
user_perlocationpermissions-verify.html
user_preferences.htm
user_user_addedit_accounts.html
user_user_addedit_confirm.html
user_user_addedit_exttransfers.html
user_user_addedit_info.html
user_user_addedit_payments.html
user_user_addedit_transactions.html
user_user_addedit_transfers.html
user_user_delete.html
user_user_delete_confirm.html
user_user_list.html
user_user_statuschange_transactions.html
user_user_terms.html
user_wiretemplateaccess-confirm.html
userprefs-confirm.html
userprefs.html
userprefspersonal-confirm.html
userprefspersonal.html
viewing_an_online_statement.html
viewing_received_alerts.htm
viewing_transaction_search.htm
welcome_to_consumer_banking.html
working_with_account_balance_summary_alerts.html
working_with_bank_inquiry_response_alerts.html
working_with_failed_attempt_lockout_alerts.html
working_with_insufficient_funds_alerts.html
working_with_invalid_account_access_alerts.htm
working_with_invalid_account_access_alerts.html
working_with_panic_pay.htm
working_with_password_change_alerts.html
working_with_unread_bank_message_alerts.html
workingwithmessages.html
whmsg_nc.js
whmsg_nc_1.js
whproxy_nc.js
whproxy_nc_1.js
whtopic_nc.js
whtopic_nc_1.js
whutils_nc.js
whutils_nc_1.js
whver_nc.js
whver_nc_1.js
cbhelp.glo
default.css
default_ns_nc.css
robohhre.lng
ehlpdhtm.js
searchoptions.xml
cbhelp.ppf
whxdata\package_0_xml.js
whxdata\package_1_xml.js
whxdata\package_2_xml.js
whxdata\package_3_xml.js
whxdata\package_4_xml.js
whxdata\package_5_xml.js
whxdata\package_6_xml.js
whxdata\package_7_xml.js
whxdata\package_8_xml.js
whxdata\package_9_xml.js
whxdata\package_10_xml.js
whxdata\package_11_xml.js
whxdata\package_12_xml.js
whxdata\package_13_xml.js
whxdata\package_14_xml.js
whxdata\package_15_xml.js
whxdata\package_16_xml.js
whxdata\package_17_xml.js
whxdata\package_18_xml.js
whxdata\package_19_xml.js
whxdata\package_20_xml.js
whxdata\package_21_xml.js
whxdata\package_22_xml.js
whxdata\package_23_xml.js
whxdata\package_24_xml.js
whxdata\package_25_xml.js
whxdata\package_26_xml.js
whxdata\package_27_xml.js
whxdata\package_28_xml.js
whxdata\package_29_xml.js
whxdata\package_30_xml.js
whxdata\package_31_xml.js
whxdata\package_32_xml.js
whxdata\package_33_xml.js
whxdata\package_34_xml.js
whxdata\package_35_xml.js
whxdata\package_36_xml.js
whxdata\package_37_xml.js
whxdata\package_38_xml.js
whxdata\package_39_xml.js
whxdata\package_40_xml.js
whxdata\package_41_xml.js
whxdata\package_42_xml.js
whxdata\package_43_xml.js
whxdata\package_44_xml.js
whxdata\package_45_xml.js
whxdata\package_46_xml.js
whxdata\package_47_xml.js
whxdata\package_48_xml.js
whxdata\package_49_xml.js
whxdata\package_50_xml.js
whxdata\package_51_xml.js
whxdata\packageindex_xml.js
whxdata\synonym.xml
whxdata\synonym_xml.js
whxdata\topictable_0_xml.js
whxdata\topictable_1_xml.js
whxdata\topictable_2_xml.js
whxdata\topictable_3_xml.js
whxdata\topictable_4_xml.js
whxdata\topictable_5_xml.js
whxdata\topictable_6_xml.js
whxdata\topictable_7_xml.js
whxdata\topictable_8_xml.js
whxdata\topictable_9_xml.js
whxdata\topictable_10_xml.js
whxdata\topictable_11_xml.js
whxdata\topictable_12_xml.js
whxdata\topictable_13_xml.js
whxdata\topictableindex_xml.js
whxdata\whfts.xml
whxdata\whfts_xml.js
whproj_xml.js
whxdata\whtoc_xml.js
whxdata\whidx_xml.js
whxdata\whglo_xml.js
resource\resource_xml.js
whbrs_xml.js
whres_xml.js
whcsh_xml.js
whxdata\whtdata0_xml.js
whxdata\whidata0_xml.js
whxdata\whidata1_xml.js
whxdata\whidata2_xml.js
whxdata\whidata3_xml.js
whdata\whtdata0.htm
whdata\whidata0.htm
whdata\whidata1.htm
whdata\whidata2.htm
whdata\whidata3.htm
whgdata\whlstt0.htm
whgdata\whlstt1.htm
whgdata\whlstt2.htm
whgdata\whlstt3.htm
whgdata\whlstt4.htm
whgdata\whlstt5.htm
whgdata\whlstt6.htm
whgdata\whlstt7.htm
whgdata\whlstt8.htm
whgdata\whlstt9.htm
whgdata\whlstt10.htm
whgdata\whlstt11.htm
whgdata\whlstt12.htm
whgdata\whlstt13.htm
whgdata\whlstt14.htm
whgdata\whlstt15.htm
whgdata\whlstt16.htm
whgdata\whlstt17.htm
whgdata\whlstt18.htm
whgdata\whlsti0.htm
whgdata\whlsti1.htm
whgdata\whlstfl0.htm
whgdata\whlstfl1.htm
whgdata\whlstfl2.htm
whgdata\whlstfl3.htm
whgdata\whlstfl4.htm
whgdata\whlstfl5.htm
whgdata\whlstfl6.htm
whgdata\whlstfl7.htm
whgdata\whlstfl8.htm
whgdata\whlstfl9.htm
whgdata\whlstfl10.htm
whgdata\whlstfl11.htm
whgdata\whlstfl12.htm
whgdata\whlstfl13.htm
whgdata\whlstfl14.htm
whgdata\whlstfl15.htm
whgdata\whlstfl16.htm
whgdata\whlstfl17.htm
whgdata\whlstfl18.htm
whgdata\whlstfl19.htm
whgdata\whlstfl20.htm
whgdata\whlstfl21.htm
whgdata\whlstfl22.htm
whgdata\whlstfl23.htm
whgdata\whlstfl24.htm
whgdata\whlstfl25.htm
whgdata\whlstf0.htm
whgdata\whlstf1.htm
whgdata\whlstf2.htm
whgdata\whlstf3.htm
whgdata\whlstf4.htm
whgdata\whlstf5.htm
whgdata\whlstf6.htm
whgdata\whlstf7.htm
whgdata\whlstf8.htm
whgdata\whlstf9.htm
whgdata\whlstf10.htm
whgdata\whlstf11.htm
whgdata\whlstf12.htm
whgdata\whlstf13.htm
whgdata\whlstf14.htm
whgdata\whlstf15.htm
whgdata\whlstf16.htm
whgdata\whlstf17.htm
whgdata\whlstf18.htm
whgdata\whlstf19.htm
whgdata\whlstf20.htm
whgdata\whlstf21.htm
whgdata\whlstf22.htm
whgdata\whlstf23.htm
whgdata\whlstf24.htm
whgdata\whlstf25.htm
whgdata\whlstf26.htm
whgdata\whlstf27.htm
whgdata\whlstf28.htm
whgdata\whlstf29.htm
whgdata\whlstf30.htm
whgdata\whlstf31.htm
whgdata\whlstf32.htm
whgdata\whlstf33.htm
whgdata\whlstf34.htm
whgdata\whlstf35.htm
whgdata\whlstf36.htm
whgdata\whlstf37.htm
whgdata\whlstf38.htm
whgdata\whlstf39.htm
whgdata\whlstf40.htm
whgdata\whlstf41.htm
whgdata\whlstf42.htm
whgdata\whlstf43.htm
whgdata\whlstf44.htm
whgdata\whlstf45.htm
whgdata\whlstf46.htm
whgdata\whlstf47.htm
whgdata\whlstf48.htm
whgdata\whlstf49.htm
whgdata\whlstf50.htm
whgdata\whlstf51.htm
whgdata\whlstf52.htm
whgdata\whlstf53.htm
whgdata\whlstf54.htm
whgdata\whlstf55.htm
whgdata\whlstf56.htm
whgdata\whlstf57.htm
whgdata\whlstf58.htm
whgdata\whlstf59.htm
whgdata\whlstf60.htm
whgdata\whlstf61.htm
whgdata\whlstf62.htm
whgdata\whlstf63.htm
whgdata\whlstf64.htm
whgdata\whlstg0.htm
cbhelp.html
cbhelp_csh.html
cbhelp_rhc.html
