<?xml version="1.0" encoding="UTF-8"?>
<session version="1.0">
<refactoring comment="Copy 3 elements to &apos;com.sap.banking.custom.common-utils-api/src/com.sap.banking.custom.common.utils.webservices&apos;&#x0D;&#x0A;- Original project: &apos;com.sap.banking.custom.common-utils&apos;&#x0D;&#x0A;- Destination element: &apos;com.sap.banking.custom.common-utils-api/src/com.sap.banking.custom.common.utils.webservices&apos;&#x0D;&#x0A;- Original elements:&#x0D;&#x0A;     com.sap.banking.custom.common.utils.webservices.WebserviceUtils.java&#x0D;&#x0A;     com.sap.banking.custom.common.utils.webservices.CustomerInquiryAccount.java&#x0D;&#x0A;     com.sap.banking.custom.common.utils.webservices.LogMessageHandler.java" description="Copy compilation units" destination="=com.sap.banking.custom.common-utils-api/src&lt;com.sap.banking.custom.common.utils.webservices" element1="/src&lt;com.sap.banking.custom.common.utils.webservices{WebserviceUtils.java" element2="/src&lt;com.sap.banking.custom.common.utils.webservices{CustomerInquiryAccount.java" element3="/src&lt;com.sap.banking.custom.common.utils.webservices{LogMessageHandler.java" files="0" flags="589830" folders="0" id="org.eclipse.jdt.ui.copy" policy="org.eclipse.jdt.ui.copyResources" stamp="1493214761794" units="3" version="1.0"/>
</session>